[
  {
    "label": "Image Box",
    "name": "image_box",
    "type": "group",
    "occurrence": {
      "default": 3,
      "min": 1,
      "sorting_label_field": "image_box.title"
    },
    "children": [
      {
        "label": "Choose Image",
        "name": "image",
        "type": "image",
        "responsive": true,
        "resizable": true,
        "show_loading": true,
        "default": {
          "loading": "lazy"
        }
      },     
      {
        "label": "Background Icon Color",
        "name": "bg_icon_color",          
        "required" : false,
        "locked" : false,
        "display" : "select",
        "choices" : [ 
          [ "red", "Red" ], 
          [ "blue", "Blue" ], 
          [ "gray", "Gray" ], 
          [ "silver", "Silver" ],
          [ "green", "Green" ], 
          [ "yellow", "Yellow" ], 
          [ "purple", "Purple" ], 
          [ "olive", "Olive" ],
          [ "moody", "Moody Blue" ],
          [ "sorbus", "Sorbus" ],
          [ "pink", "Pink" ],
          [ "mandys", "Mandys Pink" ],
          [ "pastel", "Pastel" ],
          [ "orange", "Orange" ]
        ],
        "type" : "choice",
        "default" : "blue"
      },
      {
        "label" : "Icon Image Size",
        "name" : "icon_image_size",        
        "required" : false,
        "locked" : false,
        "display" : "select",
        "choices" : [ 
          [ "large", "Icon large" ], 
          [ "medium", "Icon medium" ],
          [ "small", "Icon small" ] 
        ],
        "type" : "choice",
        "default" : "large"          
      },
      {
        "label": "Title",
        "name": "title",
        "id": "image_box.title",
        "type": "text",
        "default": "This is a title"
      },
      {
        "label": "Title HTML Tag",
        "name": "title_heading_type",
        "type": "choice",
        "choices": [
          [
            "h1",
            "Heading 1"
          ],
          [
            "h2",
            "Heading 2"
          ],
          [
            "h3",
            "Heading 3"
          ],
          [
            "h4",
            "Heading 4"
          ],
          [
            "h5",
            "Heading 5"
          ],
          [
            "h6",
            "Heading 6"
          ]
        ],
        "display": "select",
        "required": true,
        "visibility": {
          "controlling_field": "image_box.title",
          "controlling_value_regex": "",
          "operator": "NOT_EQUAL"
        },
        "default": "h3"
      },
      {
        "label": "Description",
        "name": "text",
        "type": "text",
        "default": "Contextual advertising can be profitable. It can either pay for your hosting and maintenance costs for you website or it can pay for a lot more."
      },
      {
        "label": "Alignment",
        "name": "align_position",
        "required": false,
        "locked": false,
        "display": "select",
        "choices": [
          [
            "text-left",
            "Left"
          ],
          [
            "text-right",
            "Right"
          ],
          [
            "center",
            "Center"
          ]
        ],
        "type": "choice",
        "default": "center"
      },
      {
        "label": "Image Position",
        "name": "image_position",
        "required": false,
        "locked": false,
        "display": "select",
        "choices": [
          [
            "left",
            "Left"
          ],
          [
            "top",
            "Top"
          ],
          [
            "right",
            "Right"
          ]
        ],
        "type": "choice",
        "default": "top"
      },
      {
        "label": "Link Url",
        "name": "url_link",
        "type": "link",
        "required": true,
        "supported_types": ["EXTERNAL", "EMAIL_ADDRESS"],
        "default": {
          "no_follow": false,
          "open_in_new_tab": true,
          "url": {
            "content_id": null,
            "href" : "http://example.com",
            "type": "EXTERNAL"
          }
        }
      }
    ],
    "default": [
      {
        "image": {
          "loading": "lazy"
        },
        "title": "This is a title",
        "title_heading_type": "h3",
        "text": "Contextual advertising can be profitable. It can either pay for your hosting and maintenance costs for you website or it can pay for a lot more."
      },
      {
        "image": {
          "loading": "lazy"
        },
        "title": "This is a title",
        "title_heading_type": "h3",
        "text": "Contextual advertising can be profitable. It can either pay for your hosting and maintenance costs for you website or it can pay for a lot more."
      },
      {
        "image": {
          "loading": "lazy"
        },
        "title": "This is a title",
        "title_heading_type": "h3",
        "text": "Contextual advertising can be profitable. It can either pay for your hosting and maintenance costs for you website or it can pay for a lot more."
      }
    ]
  }
]